<?xml version="1.0" encoding="utf-8"?>
<!-- Generator: Adobe Illustrator 17.0.0, SVG Export Plug-In . SVG Version: 6.00 Build 0)  -->
<!DOCTYPE svg PUBLIC "-//W3C//DTD SVG 1.1//EN" "http://www.w3.org/Graphics/SVG/1.1/DTD/svg11.dtd">
<svg version="1.1" id="Слой_1" xmlns="http://www.w3.org/2000/svg" xmlns:xlink="http://www.w3.org/1999/xlink" x="0px" y="0px"
	 width="6.024px" height="10.443px" viewBox="0 0 6.024 10.443" enable-background="new 0 0 6.024 10.443" xml:space="preserve">
<polyline fill="none" stroke="#6F99BA" stroke-width="1.6063" stroke-linecap="round" stroke-linejoin="round" stroke-miterlimit="10" points="
	5.221,0.803 0.803,5.221 5.22,9.64 "/>
</svg>
