<?xml version="1.0" encoding="utf-8"?>
<!-- Generator: Adobe Illustrator 17.0.0, SVG Export Plug-In . SVG Version: 6.00 Build 0)  -->
<!DOCTYPE svg PUBLIC "-//W3C//DTD SVG 1.1//EN" "http://www.w3.org/Graphics/SVG/1.1/DTD/svg11.dtd">
<svg version="1.1" id="Слой_1" xmlns="http://www.w3.org/2000/svg" xmlns:xlink="http://www.w3.org/1999/xlink" x="0px" y="0px"
	 width="21.122px" height="11.828px" viewBox="0 0 21.122 11.828" enable-background="new 0 0 21.122 11.828" xml:space="preserve">
<path fill="#FFFFFE" d="M10.561,0C3.633,0,0,5.105,0,5.914s3.633,5.914,10.561,5.914s10.561-5.105,10.561-5.914S17.489,0,10.561,0z
	 M10.561,10.463c-2.592,0-4.694-2.036-4.694-4.549s2.101-4.549,4.694-4.549s4.694,2.036,4.694,4.549S13.153,10.463,10.561,10.463z"
	/>
<path fill="#FFFFFE" d="M10.561,5.914c-0.43-0.472,0.701-2.275,0-2.275c-1.296,0-2.347,1.018-2.347,2.275s1.051,2.275,2.347,2.275
	c1.296,0,2.347-1.018,2.347-2.275C12.908,5.337,10.927,6.315,10.561,5.914z"/>
<path fill="#FFFFFE" d="M10.561,0C3.633,0,0,5.105,0,5.914s3.633,5.914,10.561,5.914s10.561-5.105,10.561-5.914S17.489,0,10.561,0z
	 M10.561,10.463c-2.592,0-4.694-2.036-4.694-4.549s2.101-4.549,4.694-4.549s4.694,2.036,4.694,4.549S13.153,10.463,10.561,10.463z"
	/>
<path fill="#FFFFFE" d="M10.561,5.914c-0.43-0.472,0.701-2.275,0-2.275c-1.296,0-2.347,1.018-2.347,2.275s1.051,2.275,2.347,2.275
	c1.296,0,2.347-1.018,2.347-2.275C12.908,5.337,10.927,6.315,10.561,5.914z"/>
</svg>
