<?xml version="1.0" encoding="utf-8"?>
<!-- Generator: Adobe Illustrator 17.0.0, SVG Export Plug-In . SVG Version: 6.00 Build 0)  -->
<!DOCTYPE svg PUBLIC "-//W3C//DTD SVG 1.1//EN" "http://www.w3.org/Graphics/SVG/1.1/DTD/svg11.dtd">
<svg version="1.1" id="Слой_1" xmlns="http://www.w3.org/2000/svg" xmlns:xlink="http://www.w3.org/1999/xlink" x="0px" y="0px"
	 width="13.97px" height="11.994px" viewBox="0 0 13.97 11.994" enable-background="new 0 0 13.97 11.994" xml:space="preserve">
<g>
	<path fill="#83BE53" d="M7.303,11.158c-0.367,0.497-0.938,0.804-1.555,0.834c-0.618,0.03-1.216-0.218-1.63-0.678L0.41,7.199
		c-0.59-0.653-0.537-1.661,0.116-2.251c0.654-0.589,1.661-0.537,2.251,0.117l2.624,2.912C5.44,8.02,5.496,8.043,5.554,8.041
		C5.612,8.038,5.666,8.009,5.7,7.962l5.393-7.314c0.522-0.709,1.519-0.859,2.228-0.337c0.708,0.522,0.859,1.52,0.337,2.228
		L7.303,11.158z"/>
</g>
</svg>
