<?xml version="1.0" encoding="utf-8"?>
<!-- Generator: Adobe Illustrator 17.0.0, SVG Export Plug-In . SVG Version: 6.00 Build 0)  -->
<!DOCTYPE svg PUBLIC "-//W3C//DTD SVG 1.1//EN" "http://www.w3.org/Graphics/SVG/1.1/DTD/svg11.dtd">
<svg version="1.1" id="Слой_1" xmlns="http://www.w3.org/2000/svg" xmlns:xlink="http://www.w3.org/1999/xlink" x="0px" y="0px"
	 width="19px" height="22px" viewBox="0 0 19 22" enable-background="new 0 0 19 22" xml:space="preserve">
<image overflow="visible" width="19" height="22" xlink:href="data:image/png;base64,iVBORw0KGgoAAAANSUhEUgAAABMAAAAWCAYAAAAinad/AAAAGXRFWHRTb2Z0d2FyZQBBZG9iZSBJ
bWFnZVJlYWR5ccllPAAAAMRJREFUeNqsVMENwzAIpAhlh/66QD/1EN2kQ3mTDJF8skB/3aGvgpRI
kQXGqCAhK+Y4+zABINEu7ca6vSdenuzXQY4P+/y4376oBCNEsGMlB8gIii182tJjYRWFl3LkoAX0
iHbbzh/4T8GlTmEylvMS93ConFbFLdIQmSGnjhBioD7Vw9DI9TW5Gjlm/k40KuGswMJjRFq4NTyi
ngqMNKhXDspqi/TXRGe89Oo4tRgyJqfMp+IRNjnqzeYjGBnbkG0/AQYADfpKoIOdjD8AAAAASUVO
RK5CYII=">
</image>
</svg>
