<?xml version="1.0" encoding="utf-8"?>
<!-- Generator: Adobe Illustrator 17.0.0, SVG Export Plug-In . SVG Version: 6.00 Build 0)  -->
<!DOCTYPE svg PUBLIC "-//W3C//DTD SVG 1.1//EN" "http://www.w3.org/Graphics/SVG/1.1/DTD/svg11.dtd">
<svg version="1.1" id="Слой_1" xmlns="http://www.w3.org/2000/svg" xmlns:xlink="http://www.w3.org/1999/xlink" x="0px" y="0px"
	 width="11px" height="11px" viewBox="292 416 11 11" enable-background="new 292 416 11 11" xml:space="preserve">
<g>
	<g>
		<path fill="#394979" d="M303,425c0,1.1-0.9,2-2,2h-7c-1.1,0-2-0.9-2-2v-7c0-1.1,0.9-2,2-2h7c1.1,0,2,0.9,2,2V425z"/>
	</g>
	<g>
		
			<rect x="292.551" y="420.995" transform="matrix(-0.7071 -0.7071 0.7071 -0.7071 209.8233 929.9011)" fill="#EC6150" width="9.899" height="1"/>
	</g>
	<g>
		
			<rect x="297.001" y="416.545" transform="matrix(-0.7071 -0.7071 0.7071 -0.7071 209.8245 929.9016)" fill="#EC6150" width="1" height="9.899"/>
	</g>
</g>
</svg>
