<?xml version="1.0" encoding="utf-8"?>
<!-- Generator: Adobe Illustrator 17.0.0, SVG Export Plug-In . SVG Version: 6.00 Build 0)  -->
<!DOCTYPE svg PUBLIC "-//W3C//DTD SVG 1.1//EN" "http://www.w3.org/Graphics/SVG/1.1/DTD/svg11.dtd">
<svg version="1.1" id="Слой_1" xmlns="http://www.w3.org/2000/svg" xmlns:xlink="http://www.w3.org/1999/xlink" x="0px" y="0px"
	 width="10.743px" height="10.236px" viewBox="0 0 10.743 10.236" enable-background="new 0 0 10.743 10.236" xml:space="preserve">
<path opacity="0.8" fill="#FFF06F" d="M5.736,0.494l1,3.267l3.415-0.059c0.689-0.011,0.791,0.299,0.227,0.695L7.58,6.357l1.111,3.23
	c0.224,0.652-0.041,0.844-0.592,0.429L5.371,7.962l-2.729,2.055c-0.551,0.415-0.816,0.223-0.591-0.429l1.111-3.23l-2.798-1.96
	c-0.564-0.396-0.464-0.707,0.226-0.695l3.415,0.059l1-3.267C5.208-0.165,5.535-0.165,5.736,0.494z"/>
</svg>
