<?xml version="1.0" encoding="utf-8"?>
<!-- Generator: Adobe Illustrator 17.0.0, SVG Export Plug-In . SVG Version: 6.00 Build 0)  -->
<!DOCTYPE svg PUBLIC "-//W3C//DTD SVG 1.1//EN" "http://www.w3.org/Graphics/SVG/1.1/DTD/svg11.dtd">
<svg version="1.1" id="Слой_1" xmlns="http://www.w3.org/2000/svg" xmlns:xlink="http://www.w3.org/1999/xlink" x="0px" y="0px"
	 width="32.599px" height="32.356px" viewBox="0 0 32.599 32.356" enable-background="new 0 0 32.599 32.356" xml:space="preserve">
<g>
	
		<rect x="7.982" y="-3.051" transform="matrix(0.7012 0.7129 -0.7129 0.7012 8.4919 -3.5506)" fill="#849AAF" width="1" height="22.814"/>
</g>
<g>
	
		<rect x="12.169" y="8.172" transform="matrix(0.7071 0.7071 -0.7071 0.7071 13.1414 -14.3808)" fill="#849AAF" width="23.521" height="1"/>
</g>
<g>
	<rect x="15.614" y="0.356" fill="#849AAF" width="1" height="32"/>
</g>
</svg>
